linear_regreesion_model
…
heart_data <- read_csv("https://www4.stat.ncsu.edu/online/datasets/heart.csv") |>
  filter(RestingBP > 0) #remove one value

Rows: 918 Columns: 12
── Column specification ────────────────────────────────────────────────────────
Delimiter: ","
chr (5): Sex, ChestPainType, RestingECG, ExerciseAngina, ST_Slope
dbl (7): Age, RestingBP, Cholesterol, FastingBS, MaxHR, Oldpeak, HeartDisease

ℹ Use `spec()` to retrieve the full column specification for this data.
ℹ Specify the column types or set `show_col_types = FALSE` to quiet this message.

heart_data |> select(HeartDisease, everything()) #Cholesterol has many values set to 0 so we ignore that

# A tibble: 917 × 12
   HeartDisease   Age Sex   ChestPainType RestingBP Cholesterol FastingBS
          <dbl> <dbl> <chr> <chr>             <dbl>       <dbl>     <dbl>
 1            0    40 M     ATA                 140         289         0
 2            1    49 F     NAP                 160         180         0
 3            0    37 M     ATA                 130         283         0
 4            1    48 F     ASY                 138         214         0
 5            0    54 M     NAP                 150         195         0
 6            0    39 M     NAP                 120         339         0
 7            0    45 F     ATA                 130         237         0
 8            0    54 M     ATA                 110         208         0
 9            1    37 M     ASY                 140         207         0
10            0    48 F     ATA                 120         284         0
# ℹ 907 more rows
# ℹ 5 more variables: RestingECG <chr>, MaxHR <dbl>, ExerciseAngina <chr>,
#   Oldpeak <dbl>, ST_Slope <chr>
…
