Fitting Models
…
There were issues with some computations:

  - Warning(s) x80: A correlation computation is required, but `estimate` is constant...

Run `show_notes(.Last.tune.result)` for more information.

LASSO_grid[1, ".metrics"][[1]]

[[1]]
# A tibble: 400 × 5
    penalty .metric .estimator .estimate .config          
      <dbl> <chr>   <chr>          <dbl> <chr>            
 1 1   e-10 rmse    standard       0.475 pre0_mod001_post0
 2 1   e-10 rsq     standard       0.596 pre0_mod001_post0
 3 1.12e-10 rmse    standard       0.475 pre0_mod002_post0
 4 1.12e-10 rsq     standard       0.596 pre0_mod002_post0
 5 1.26e-10 rmse    standard       0.475 pre0_mod003_post0
 6 1.26e-10 rsq     standard       0.596 pre0_mod003_post0
 7 1.41e-10 rmse    standard       0.475 pre0_mod004_post0
 8 1.41e-10 rsq     standard       0.596 pre0_mod004_post0
 9 1.59e-10 rmse    standard       0.475 pre0_mod005_post0
10 1.59e-10 rsq     standard       0.596 pre0_mod005_post0
# ℹ 390 more rows

LASSO_grid |>
  collect_metrics() |>
  filter(.metric == "rmse")

# A tibble: 200 × 7
    penalty .metric .estimator  mean     n std_err .config          
      <dbl> <chr>   <chr>      <dbl> <int>   <dbl> <chr>            
 1 1   e-10 rmse    standard   0.494    10  0.0199 pre0_mod001_post0
 2 1.12e-10 rmse    standard   0.494    10  0.0199 pre0_mod002_post0
 3 1.26e-10 rmse    standard   0.494    10  0.0199 pre0_mod003_post0
 4 1.41e-10 rmse    standard   0.494    10  0.0199 pre0_mod004_post0
 5 1.59e-10 rmse    standard   0.494    10  0.0199 pre0_mod005_post0
 6 1.78e-10 rmse    standard   0.494    10  0.0199 pre0_mod006_post0
 7 2.00e-10 rmse    standard   0.494    10  0.0199 pre0_mod007_post0
 8 2.25e-10 rmse    standard   0.494    10  0.0199 pre0_mod008_post0
 9 2.52e-10 rmse    standard   0.494    10  0.0199 pre0_mod009_post0
10 2.83e-10 rmse    standard   0.494    10  0.0199 pre0_mod010_post0
# ℹ 190 more rows
…
